Step 1: Pre-Processing
…
# FCS file provided in the package
basal <- system.file('extdata',
    'Bendall et al Cell Sample C_basal.fcs',
    package = "Sconify")

# Example of data with no transformation
basal.raw <- fcs.to.tibble(basal, transform = "none")

## the text section does not end with delimiter: \\. The last keyword is dropped.
## the text section does not end with delimiter: \\. The last keyword is dropped.

basal.raw

## # A tibble: 10,864 x 50
##     Time Cell_length `CD3(Cd110)Di` `CD3(Cd111)Di` `CD3(Cd112)Di`
##    <dbl>       <dbl>          <dbl>          <dbl>          <dbl>
##  1   635          31     -3.5358615      1.8226306     -0.4170177
##  2  1737          25     -0.6394501     -0.6441183     -0.7583790
##  3  2253          27     -1.6379603      2.7815318     -4.1956387
##  4  3138          31     -0.2501172     -0.3041676     11.9114199
##  5  4330          24      2.2294085      3.7569544      4.4480190
##  6  4645          26     -0.7945073     -0.4761422     -1.1873211
##  7  4760          26     -1.2358203     -0.6481980      1.2344197
##  8  4771          24     -0.1091865     -3.6199005     -4.5007906
##  9  4937          29     -0.3016406      4.4300771      2.3796554
## 10  4968          22     -4.8483834     -1.5226138     -2.1484954
## # ... with 10,854 more rows, and 45 more variables:
## #   `CD235-61-7-15(In113)Di` <dbl>, `CD3(Cd114)Di` <dbl>,
## #   `CD45(In115)Di` <dbl>, `cPARP(La139)Di` <dbl>,
## #   `pPLCg2(Pr141)Di` <dbl>, `CD19(Nd142)Di` <dbl>, `CD22(Nd143)Di` <dbl>,
## #   `pSrc(Nd144)Di` <dbl>, `IgD(Nd145)Di` <dbl>, `CD79b(Nd146)Di` <dbl>,
## #   `CD20(Sm147)Di` <dbl>, `CD34(Nd148)Di` <dbl>, `CD179a(Sm149)Di` <dbl>,
## #   `pSTAT5(Nd150)Di` <dbl>, `CD72(Eu151)Di` <dbl>, `Ki67(Sm152)Di` <dbl>,
## #   `IgM(Eu153)Di` <dbl>, `Kappa(Sm154)Di` <dbl>, `pErk12(Gd155)Di` <dbl>,
## #   `CD10(Gd156)Di` <dbl>, `Lambda(Gd157)Di` <dbl>,
…
# Asinh transformation with a scale argument of 5
basal.asinh <- fcs.to.tibble(basal, transform = "asinh")

## the text section does not end with delimiter: \\. The last keyword is dropped.
## the text section does not end with delimiter: \\. The last keyword is dropped.

basal.asinh

## # A tibble: 10,864 x 50
##        Time Cell_length `CD3(Cd110)Di` `CD3(Cd111)Di` `CD3(Cd112)Di`
##       <dbl>       <dbl>          <dbl>          <dbl>          <dbl>
##  1 5.537350    2.524138    -0.65853244     0.35690083    -0.08330714
##  2 6.543626    2.312438    -0.12754393    -0.12846998    -0.15110018
##  3 6.803728    2.388011    -0.32199883     0.53099882    -0.76293118
##  4 7.135051    2.524138    -0.05000261    -0.06079605     1.60260255
##  5 7.457032    2.272441     0.43229121     0.69425952     0.80111951
##  6 7.527256    2.350926    -0.15824025    -0.09508509    -0.23528728
##  7 7.551712    2.350926    -0.24471428    -0.12927919     0.24444234
##  8 7.554021    2.272441    -0.02183557    -0.67220116    -0.80898446
##  9 7.588223    2.458355    -0.06029159     0.79843607     0.45958098
## 10 7.594482    2.187422    -0.85976841    -0.30000235    -0.41746704
## # ... with 10,854 more rows, and 45 more variables:
## #   `CD235-61-7-15(In113)Di` <dbl>, `CD3(Cd114)Di` <dbl>,
## #   `CD45(In115)Di` <dbl>, `cPARP(La139)Di` <dbl>,
## #   `pPLCg2(Pr141)Di` <dbl>, `CD19(Nd142)Di` <dbl>, `CD22(Nd143)Di` <dbl>,
## #   `pSrc(Nd144)Di` <dbl>, `IgD(Nd145)Di` <dbl>, `CD79b(Nd146)Di` <dbl>,
## #   `CD20(Sm147)Di` <dbl>, `CD34(Nd148)Di` <dbl>, `CD179a(Sm149)Di` <dbl>,
## #   `pSTAT5(Nd150)Di` <dbl>, `CD72(Eu151)Di` <dbl>, `Ki67(Sm152)Di` <dbl>,
## #   `IgM(Eu153)Di` <dbl>, `Kappa(Sm154)Di` <dbl>, `pErk12(Gd155)Di` <dbl>,
## #   `CD10(Gd156)Di` <dbl>, `Lambda(Gd157)Di` <dbl>,
…
# Combining these. Note that default is sub-sampling to 10,000 cells, not normalizing, and not scaling
combined <- process.multiple.files(files = c(basal, il7), input = surface)

## the text section does not end with delimiter: \\. The last keyword is dropped.
## the text section does not end with delimiter: \\. The last keyword is dropped.
## the text section does not end with delimiter: \\. The last keyword is dropped.
## the text section does not end with delimiter: \\. The last keyword is dropped.

combined

## # A tibble: 10,000 x 51
##    `CD3(Cd110)Di` `CD3(Cd111)Di` `CD3(Cd112)Di` `CD235-61-7-15(In113)Di`
##             <dbl>          <dbl>          <dbl>                    <dbl>
##  1    0.086697628     2.55655055     1.65093670                0.5717975
##  2   -0.317043752     0.17677218    -1.17542705                0.2811703
##  3    0.364412214     0.13689811     1.35602613               -0.1061449
##  4    0.004806259    -0.09665493     0.20963892               -1.4465772
##  5   -0.228219645    -0.10838461    -0.21318524                0.8195761
##  6   -0.279749579    -0.35149480    -0.54900005                0.2709792
##  7   -0.211592636    -0.17895398    -0.07165329               -0.7098735
##  8    0.824610463    -0.02181934    -0.03550176                0.3672940
##  9   -0.183561781     0.11522096     0.11892369               -0.2309404
## 10   -0.227596717    -0.18770460    -0.16647946               -0.5095834
## # ... with 9,990 more rows, and 47 more variables: `CD3(Cd114)Di` <dbl>,
## #   `CD45(In115)Di` <dbl>, `CD19(Nd142)Di` <dbl>, `CD22(Nd143)Di` <dbl>,
## #   `IgD(Nd145)Di` <dbl>, `CD79b(Nd146)Di` <dbl>, `CD20(Sm147)Di` <dbl>,
## #   `CD34(Nd148)Di` <dbl>, `CD179a(Sm149)Di` <dbl>, `CD72(Eu151)Di` <dbl>,
## #   `IgM(Eu153)Di` <dbl>, `Kappa(Sm154)Di` <dbl>, `CD10(Gd156)Di` <dbl>,
## #   `Lambda(Gd157)Di` <dbl>, `CD24(Dy161)Di` <dbl>, `TdT(Dy163)Di` <dbl>,
## #   `Rag1(Dy164)Di` <dbl>, `PreBCR(Ho165)Di` <dbl>, `CD43(Er167)Di` <dbl>,
## #   `CD38(Er168)Di` <dbl>, `CD40(Er170)Di` <dbl>, `CD33(Yb173)Di` <dbl>,
## #   `HLA-DR(Yb174)Di` <dbl>, Time <dbl>, Cell_length <dbl>,
…
unique(combined$condition)

## [1] "basal" "IL7"

# Limit your matrix to surface markers, if just using those downstream
combined.input <- combined[,surface]
combined.input

## # A tibble: 10,000 x 27
##    `CD3(Cd110)Di` `CD3(Cd111)Di` `CD3(Cd112)Di` `CD235-61-7-15(In113)Di`
##             <dbl>          <dbl>          <dbl>                    <dbl>
##  1    0.086697628     2.55655055     1.65093670                0.5717975
##  2   -0.317043752     0.17677218    -1.17542705                0.2811703
##  3    0.364412214     0.13689811     1.35602613               -0.1061449
##  4    0.004806259    -0.09665493     0.20963892               -1.4465772
##  5   -0.228219645    -0.10838461    -0.21318524                0.8195761
##  6   -0.279749579    -0.35149480    -0.54900005                0.2709792
##  7   -0.211592636    -0.17895398    -0.07165329               -0.7098735
##  8    0.824610463    -0.02181934    -0.03550176                0.3672940
##  9   -0.183561781     0.11522096     0.11892369               -0.2309404
## 10   -0.227596717    -0.18770460    -0.16647946               -0.5095834
## # ... with 9,990 more rows, and 23 more variables: `CD3(Cd114)Di` <dbl>,
## #   `CD45(In115)Di` <dbl>, `CD19(Nd142)Di` <dbl>, `CD22(Nd143)Di` <dbl>,
## #   `IgD(Nd145)Di` <dbl>, `CD79b(Nd146)Di` <dbl>, `CD20(Sm147)Di` <dbl>,
## #   `CD34(Nd148)Di` <dbl>, `CD179a(Sm149)Di` <dbl>, `CD72(Eu151)Di` <dbl>,
## #   `IgM(Eu153)Di` <dbl>, `Kappa(Sm154)Di` <dbl>, `CD10(Gd156)Di` <dbl>,
## #   `Lambda(Gd157)Di` <dbl>, `CD24(Dy161)Di` <dbl>, `TdT(Dy163)Di` <dbl>,
## #   `Rag1(Dy164)Di` <dbl>, `PreBCR(Ho165)Di` <dbl>, `CD43(Er167)Di` <dbl>,
## #   `CD38(Er168)Di` <dbl>, `CD40(Er170)Di` <dbl>, `CD33(Yb173)Di` <dbl>,
## #   `HLA-DR(Yb174)Di` <dbl>

# We can do this on a single file as well. Notice I allow for scaling and I change the number of cells
basal.data <- process.multiple.files(files = basal, numcells = 6000, scale = TRUE, input = surface)

## the text section does not end with delimiter: \\. The last keyword is dropped.
## the text section does not end with delimiter: \\. The last keyword is dropped.

basal.data

## # A tibble: 6,000 x 51
##    `CD3(Cd110)Di` `CD3(Cd111)Di` `CD3(Cd112)Di` `CD235-61-7-15(In113)Di`
##             <dbl>          <dbl>          <dbl>                    <dbl>
##  1     -0.7805971    -1.14617220    -0.76199593               -0.6712325
##  2     -0.1723501    -0.17676430    -0.12241001               -0.3297469
##  3      1.0513432    -0.06353407     1.82083729                0.4801407
##  4      0.2911186    -1.05836797    -0.81627480                1.1934884
##  5     -0.7880706     0.81394298     0.15815643                0.6824093
##  6     -0.4044712    -0.82597099    -0.02474819               -1.4748786
##  7      1.7742851    -0.28609044    -0.23535861               -0.4553140
##  8      0.1428343     0.05275945    -0.29815229               -0.1564487
##  9     -0.3227346     0.68994339     0.27465442                1.1301352
## 10     -1.4365738    -1.85865980    -2.33155343               -1.6116341
## # ... with 5,990 more rows, and 47 more variables: `CD3(Cd114)Di` <dbl>,
## #   `CD45(In115)Di` <dbl>, `CD19(Nd142)Di` <dbl>, `CD22(Nd143)Di` <dbl>,
## #   `IgD(Nd145)Di` <dbl>, `CD79b(Nd146)Di` <dbl>, `CD20(Sm147)Di` <dbl>,
## #   `CD34(Nd148)Di` <dbl>, `CD179a(Sm149)Di` <dbl>, `CD72(Eu151)Di` <dbl>,
## #   `IgM(Eu153)Di` <dbl>, `Kappa(Sm154)Di` <dbl>, `CD10(Gd156)Di` <dbl>,
## #   `Lambda(Gd157)Di` <dbl>, `CD24(Dy161)Di` <dbl>, `TdT(Dy163)Di` <dbl>,
## #   `Rag1(Dy164)Di` <dbl>, `PreBCR(Ho165)Di` <dbl>, `CD43(Er167)Di` <dbl>,
## #   `CD38(Er168)Di` <dbl>, `CD40(Er170)Di` <dbl>, `CD33(Yb173)Di` <dbl>,
## #   `HLA-DR(Yb174)Di` <dbl>, Time <dbl>, Cell_length <dbl>,
…
# The markers
markers <- read.csv(markers, stringsAsFactors = FALSE)
surface <- markers$surface

# The function
split <- splitFile(file = basal, input.markers = surface)

## the text section does not end with delimiter: \\. The last keyword is dropped.
## the text section does not end with delimiter: \\. The last keyword is dropped.

split

## # A tibble: 10,000 x 51
##    `CD3(Cd110)Di` `CD3(Cd111)Di` `CD3(Cd112)Di` `CD235-61-7-15(In113)Di`
##             <dbl>          <dbl>          <dbl>                    <dbl>
##  1    -0.15178845    -0.45907902     -0.2180240              -1.48965355
##  2    -0.19245524    -0.06995060      0.2784911              -0.63442920
##  3    -0.01124125    -0.09232017     -0.1450504              -0.19217741
##  4    -1.00622433    -0.76717315     -0.3557908              -0.85346274
##  5    -0.55445980    -1.34097056     -0.4486584              -2.68554855
##  6    -0.14524394    -0.19473493     -0.0635014              -0.84497367
##  7    -0.29806728     0.44096862     -0.8069513              -0.89198687
##  8     0.02408736    -0.42073095     -0.1864446               0.02749259
##  9     0.07447917    -0.52312102     -0.3157009               0.20739435
## 10    -0.65513355     0.64927220     -0.5628753               0.24454981
## # ... with 9,990 more rows, and 47 more variables: `CD3(Cd114)Di` <dbl>,
## #   `CD45(In115)Di` <dbl>, `CD19(Nd142)Di` <dbl>, `CD22(Nd143)Di` <dbl>,
## #   `IgD(Nd145)Di` <dbl>, `CD79b(Nd146)Di` <dbl>, `CD20(Sm147)Di` <dbl>,
## #   `CD34(Nd148)Di` <dbl>, `CD179a(Sm149)Di` <dbl>, `CD72(Eu151)Di` <dbl>,
## #   `IgM(Eu153)Di` <dbl>, `Kappa(Sm154)Di` <dbl>, `CD10(Gd156)Di` <dbl>,
## #   `Lambda(Gd157)Di` <dbl>, `CD24(Dy161)Di` <dbl>, `TdT(Dy163)Di` <dbl>,
## #   `Rag1(Dy164)Di` <dbl>, `PreBCR(Ho165)Di` <dbl>, `CD43(Er167)Di` <dbl>,
## #   `CD38(Er168)Di` <dbl>, `CD40(Er170)Di` <dbl>, `CD33(Yb173)Di` <dbl>,
## #   `HLA-DR(Yb174)Di` <dbl>, Time <dbl>, Cell_length <dbl>,
…
